{
  "traffic_map": [
    ["C", "C", "C", "-", "-", "C", "C", "C", "-", "-"],
    ["C", "-", "C", "C", "C", "C", "-", "C", "*", "C"],
    ["C", "-", "-", "-", "C", "-", "-", "-", "-", "C"],
    ["C", "C", "C", "C", "C", "C", "C", "C", "C", "C"],
    ["-", "-", "-", "-", "-", "-", "-", "-", "-", "C"],
    ["C", "C", "C", "C", "C", "C", "C", "C", "C", "C"],
    ["C", "-", "-", "-", "-", "-", "-", "C", "C", "C"],
    ["C", "-", "*", "C", "C", "C", "C", "C", "C", "C"],
    ["C", "-", "-", "-", "-", "-", "-", "-", "-", "C"],
    ["C", "C", "C", "C", "C", "C", "C", "C", "C", "C"]
  ],
  "map_size": [10, 10],
  "possible_moves": [
    [1,0],
    [-1,0],
    [0,1],
    [0,-1]
  ],
  "hospital_locations": [
    [7,2],
    [1,8]
  ],
  "emergency_locations": [
    [7,0],
    [5,2],
    [0,1],
    [1,5],
    [2,4]
  ],
  "num_lives_need_saving": 10,
  "iterations_between_emergencies": 6,
  "heavy_traffic_decay_count": 30,
  "medium_traffic_decay_count": 60,
  "clear_traffic_decay_count": 0,
  "heavy_traffic_delay": 5,
  "medium_traffic_delay": 3,
  "clear_traffic_delay": 0,
  "heavy_traffic_cost": 5,
  "medium_traffic_cost": 3,
  "clear_traffic_cost": 1,
  "seed": 0
}
